{
  "commands": [
    "поставить будильник",
    "найти в интернете"

  ],
  "data": [
    [
      "поставь будильник на 8",
      0
    ],
    [
      "поставь будильник на сегодня",
      0
    ],
    [
      "поставь будильник на завтра",
      0
    ],
    [
      "разбуди через час",
      0
    ],
    [
      "нужно проснуться завтра в 6",
      0
    ],
    [
      "разбуди утром в 12",
      0
    ],
    [
      "как будет по английски",
      1
    ],
    [
      "что значит слово",
      1
    ],
    [
      "как сделать что-то",
      1
    ],
    [
      "что делать при",
      1
    ],
    [
      "найди пожалуйста ",
      1
    ],
    [
      "как будет по английски",
      1
    ]

  ]
}